Untitled
…
df <- data.table::rbindlist(init, use.names = TRUE, fill = TRUE)
w_coords <- df[!is.na(lng_deg) & !is.na(lat_deg) & lng_deg < 179 & lng_deg > -179 & lat_deg < 89 & lng_deg > -89]

ais_sf <- w_coords %>% 
    as_tibble() %>% 
    st_as_sf(coords = c("lng_deg", "lat_deg"), crs = 4326L) %>% 
    mutate(geometry = st_make_valid(geometry))# %>%
ais_sf

## Simple feature collection with 5310311 features and 68 fields
## geometry type:  POINT
## dimension:      XY
## bbox:           xmin: -88.99997 ymin: -110.7819 xmax: 176.3465 ymax: 87.62499
## CRS:            EPSG:4326
## # A tibble: 5,310,311 x 69
##    time                first_line_numb message_id repeat_indicator   mmsi
##  * <dttm>                         <int>      <int>            <int>  <int>
##  1 2018-12-10 00:00:00                3          1                0 3.10e8
##  2 2018-12-10 00:00:00                8          1                0 2.58e8
##  3 2018-12-10 00:00:00                9          3                0 2.66e8
##  4 2018-12-10 00:00:00               12          3                0 2.66e8
##  5 2018-12-10 00:00:00               25          1                0 3.67e8
##  6 2018-12-10 00:00:00               28          1                0 3.05e8
##  7 2018-12-10 00:00:00               30          1                0 2.65e8
##  8 2018-12-10 00:00:00               34          1                0 2.57e8
##  9 2018-12-10 00:00:00               35          3                0 2.73e8
## 10 2018-12-10 00:00:00               45          3                0 3.68e8
## #  with 5,310,301 more rows, and 64 more variables: nav_status <int>,
## #   rot_over_range <lgl>, rot <dbl>, sog <dbl>, position_accuracy <int>,
## #   cog <dbl>, true_heading <int>, timestamp <int>, special_manoeuvre <int>,
## #   spare <int>, raim <lgl>, sync_state <int>, slot_timeout <int>,
## #   received_stations <int>, slot_number <int>, utc_hour <int>, utc_min <int>,
## #   utc_spare <int>, slot_offset <int>, slot_increment <int>,
## #   slots_to_allocate <int>, keep_flag <int>, year <int>, month <int>,
## #   day <int>, hour <int>, minute <int>, second <int>, fix_type <int>,
## #   transmission_ctl <int>, ais_version <int>, imo_num <int>, callsign <chr>,
…
