Decode NMEA Messages — ais_decode_filter • maritime
…
# decoding a file, filter by messgage type ==================================
ais_decode_filter(nmea_file, msg_type = ais_msgs$msg_1_2_3)
#> - `data_type` detected: file
#> # A tibble: 37 x 29
#>    time                first_line_numb… message_id repeat_indicator   mmsi
#>    <dttm>                         <int>      <int>            <int>  <int>
#>  1 2018-10-31 23:58:31                7          1                0 2.77e8
#>  2 2018-10-31 23:58:31                9          3                0 2.49e8
#>  3 2018-10-31 23:58:31               15          3                0 2.57e8
#>  4 2018-10-31 23:58:31               23          1                0 2.45e8
#>  5 2018-10-31 23:58:31               30          1                0 2.06e8
#>  6 2018-10-31 23:58:31               33          3                1 2.31e8
#>  7 2018-10-31 23:58:31               34          1                0 6.63e8
#>  8 2018-10-31 23:58:31               35          1                0 2.45e8
#>  9 2018-10-31 23:58:31               36          1                1 2.30e8
#> 10 2018-10-31 23:58:31               38          1                0 6.36e8
#> # … with 27 more rows, and 24 more variables: nav_status <int>,
#> #   rot_over_range <lgl>, rot <dbl>, sog <dbl>, position_accuracy <int>,
#> #   lng_deg <dbl>, lat_deg <dbl>, cog <dbl>, true_heading <int>,
#> #   timestamp <int>, special_manoeuvre <int>, spare <int>, raim <lgl>,
#> #   sync_state <int>, slot_timeout <int>, received_stations <int>,
#> #   slot_number <int>, utc_hour <int>, utc_min <int>, utc_spare <int>,
#> #   slot_offset <int>, slot_increment <int>, slots_to_allocate <int>,
#> #   keep_flag <lgl>

# return all messages as list of data frames ================================
ais_decode_list(nmea_file)
#> - `data_type` detected: file
#> $msgs_1_2_3
#> # A tibble: 37 x 29
#>    time                first_line_numb… message_id repeat_indicator   mmsi
#>    <dttm>                         <int>      <int>            <int>  <int>
#>  1 2018-10-31 23:58:31                7          1                0 2.77e8
#>  2 2018-10-31 23:58:31                9          3                0 2.49e8
#>  3 2018-10-31 23:58:31               15          3                0 2.57e8
#>  4 2018-10-31 23:58:31               23          1                0 2.45e8
#>  5 2018-10-31 23:58:31               30          1                0 2.06e8
#>  6 2018-10-31 23:58:31               33          3                1 2.31e8
#>  7 2018-10-31 23:58:31               34          1                0 6.63e8
#>  8 2018-10-31 23:58:31               35          1                0 2.45e8
#>  9 2018-10-31 23:58:31               36          1                1 2.30e8
#> 10 2018-10-31 23:58:31               38          1                0 6.36e8
#> # … with 27 more rows, and 24 more variables: nav_status <int>,
#> #   rot_over_range <lgl>, rot <dbl>, sog <dbl>, position_accuracy <int>,
#> #   lng_deg <dbl>, lat_deg <dbl>, cog <dbl>, true_heading <int>,
#> #   timestamp <int>, special_manoeuvre <int>, spare <int>, raim <lgl>,
#> #   sync_state <int>, slot_timeout <int>, received_stations <int>,
#> #   slot_number <int>, utc_hour <int>, utc_min <int>, utc_spare <int>,
#> #   slot_offset <int>, slot_increment <int>, slots_to_allocate <int>,
#> #   keep_flag <lgl>
…
# return all messages, combined into a single data frame ====================
ais_decode_df(nmea_file)
#> - `data_type` detected: file
#> # A tibble: 254 x 109
#>    time                first_line_numb… message_id repeat_indicator   mmsi
#>    <dttm>                         <int>      <int>            <int>  <int>
#>  1 NA                                 5          5                0 2.30e8
#>  2 2018-10-31 23:58:31                7          1                0 2.77e8
#>  3 2018-10-31 23:58:31                9          3                0 2.49e8
#>  4 2018-10-31 23:58:31               11          4                0 3.16e6
#>  5 NA                                12          5                0 2.41e8
#>  6 2018-10-31 23:58:31               15          3                0 2.57e8
#>  7 2018-10-31 23:58:31               16          4                0 2.47e6
#>  8 NA                                17          5                0 2.45e8
#>  9 NA                                19          5                0 2.32e8
#> 10 NA                                21          5                0 5.38e8
#> # … with 244 more rows, and 104 more variables: nav_status <int>,
#> #   rot_over_range <lgl>, rot <dbl>, sog <dbl>, position_accuracy <int>,
#> #   lng_deg <dbl>, lat_deg <dbl>, cog <dbl>, true_heading <int>,
#> #   timestamp <int>, special_manoeuvre <int>, spare <int>, raim <int>,
#> #   sync_state <int>, slot_timeout <int>, received_stations <int>,
#> #   slot_number <int>, utc_hour <int>, utc_min <int>, utc_spare <int>,
#> #   slot_offset <int>, slot_increment <int>, slots_to_allocate <int>,
#> #   keep_flag <int>, year <int>, month <int>, day <int>, hour <int>,
#> #   minute <int>, second <int>, fix_type <int>, transmission_ctl <int>,
…
