Decode NMEA Messages — ais_decode_nmea • maritime
…
# decoding a file =====================================================================
ais_decode_nmea(nmea_file)
#> - `data_type` detected: file
#> Simple feature collection with 27 features and 26 fields
#> geometry type:  POINT
#> dimension:      XY
#> bbox:           xmin: -72.54038 ymin: 14.68399 xmax: 25.5757 ymax: 69.31088
#> epsg (SRID):    4326
#> proj4string:    +proj=longlat +datum=WGS84 +no_defs
#> # A tibble: 27 x 27
#>    message_id repeat_indicator   mmsi rot_over_range     rot    sog
#>         <int>            <int>  <int> <lgl>            <dbl>  <dbl>
#>  1          1                0 2.66e8 FALSE            -2.86 13.9  
#>  2          1                0 2.77e8 FALSE             0     0    
#>  3          3                0 2.49e8 FALSE             0     0    
#>  4          3                0 2.57e8 FALSE             0     0    
#>  5          1                0 2.45e8 TRUE           -731.    0    
#>  6          1                0 2.06e8 TRUE           -731.    0    
#>  7          3                1 2.31e8 FALSE             0     0    
#>  8          1                0 6.63e8 TRUE           -731.    0.100
#>  9          1                0 2.45e8 TRUE           -731.    0    
#> 10          1                1 2.30e8 FALSE             0     0    
#> # … with 17 more rows, and 21 more variables: position_accuracy <int>,
#> #   lng_deg <dbl>, lat_deg <dbl>, cog <dbl>, true_heading <int>,
#> #   timestamp <int>, special_manoeuvre <int>, spare <int>, raim <lgl>,
#> #   sync_state <int>, slot_timeout <int>, received_stations <int>,
#> #   slot_number <int>, utc_hour <int>, utc_min <int>, utc_spare <int>,
#> #   slot_offset <int>, slot_increment <int>, slots_to_allocate <int>,
#> #   keep_flag <lgl>, geometry <POINT [°]>
…
